[
  {
      "id": "G2010",
      "name": "G2010 Roadways"
  },
  {
      "id": "G2020",
      "name": "G2020 Parking Lots"
  },
  {
      "id": "G2030",
      "name": "G2030 Pedestrian Paving"
  },
  {
      "id": "G2040",
      "name": "G2040 Site Development"
  },
  {
      "id": "G2050",
      "name": "G2050 Landscaping"
  },
  {
      "id": "G3010",
      "name": "G3010 Water Supply"
  },
  {
      "id": "G3020",
      "name": "G3020 Sanitary Sewer"
  },
  {
      "id": "G3030",
      "name": "G3030 Storm sewer"
  },
  {
      "id": "G3040",
      "name": "G3040 Heating Distribution"
  },
  {
      "id": "G3050",
      "name": "G3050 Hydronic Cooling Distribution"
  },
  {
      "id": "G3060",
      "name": "G3060 Fuel Distribution"
  },
  {
      "id": "G3090",
      "name": "G3090 Other Site Mechanical Utilities"
  },
  {
      "id": "G4010",
      "name": "G4010 Electrical Distribution"
  },
  {
      "id": "G4020",
      "name": "G4020 Site Lighting"
  },
  {
      "id": "G4090",
      "name": "G4090 Other Site Electrical Utilities"
  },
  {
      "id": "G4030",
      "name": "G4030 Site Communications and Security"
  }
]
